Change Component DesignItemId : Designator=C4 Old DesignItemId=C New DesignItemId=C0003-10U0
Change Component Comment : Designator=C4 Old Comment=10uF New Comment=10U
Change Component Description : Designator=C4 Old Description= New Description=Kondensator
Change Component Library : Designator=C4 Old Library=WEPTECH.SCHLIB New Library=PK_ArtDb.DbLib
