Change Component DesignItemId : Designator=R16 Old DesignItemId=R New DesignItemId=R0001-02K2
Change Component Description : Designator=R16 Old Description= New Description=Widerstand
Change Component Library : Designator=R16 Old Library=WEPTECH.SCHLIB New Library=PK_ArtDb.DbLib
