Change Component DesignItemId : Designator=C10 Old DesignItemId=C New DesignItemId=C0001-010N
Change Component Footprint: Designator=C10 Old Footprint=C0402N - Kremser New Footprint=C0402N
Change Component Comment : Designator=C10 Old Comment=10n New Comment=10NF
