Change Component DesignItemId : Designator=R9 Old DesignItemId=R New DesignItemId=R0001-27K0
Change Component Description : Designator=R9 Old Description= New Description=Widerstand
Change Component Library : Designator=R9 Old Library=WEPTECH.SCHLIB New Library=PK_ArtDb.DbLib
