Change Component DesignItemId : Designator=R11 Old DesignItemId=R New DesignItemId=R0002-000R
Change Component Comment : Designator=R11 Old Comment=Optional 0R New Comment=0R - optional
Change Component Description : Designator=R11 Old Description=Optional New Description=Widerstand
Change Component Library : Designator=R11 Old Library=WEPTECH.SCHLIB New Library=PK_ArtDb.DbLib
