Removed Pin From Net: NetName=GND Pin=C17-2
Removed Pin From Net: NetName=NetD1_A Pin=R23-1
Change Component DesignItemId : Designator=C17 Old DesignItemId=C New DesignItemId=C0002-220P
Change Component DesignItemId : Designator=R23 Old DesignItemId=R New DesignItemId=R0004-01M0
Change Component DesignItemId : Designator=R24 Old DesignItemId=R New DesignItemId=R0004-01M0
Change Component Description : Designator=C17 Old Description= New Description=Kondensator
Change Component Description : Designator=R23 Old Description= New Description=Widerstand
Change Component Description : Designator=R24 Old Description= New Description=Widerstand
Change Component Library : Designator=R23 Old Library=WEPTECH.LIB New Library=PK_ArtDb.DbLib
Change Component Library : Designator=R24 Old Library=WEPTECH.LIB New Library=PK_ArtDb.DbLib
Change Component Library : Designator=C17 Old Library=WEPTECH.SCHLIB New Library=PK_ArtDb.DbLib
Added Pin To Net: NetName=NetD1_A Pin=R23-2
Added Pin To Net: NetName=NetIC2_9 Pin=IC2-9
Added Pin To Net: NetName=NetIC2_9 Pin=R24-1
Added Net: Name=NetIC2_9
Added Pin To Net: NetName=NetR23_1 Pin=R23-1
Added Pin To Net: NetName=NetR23_1 Pin=R24-2
Added Net: Name=NetR23_1
